^C:\USERS\ACER\SOURCE\REPOS\컴그텀프최종\컴그텀프최종\MAIN.CPP
/c /ZI /JMC /nologo /W3 /WX- /diagnostics:classic /sdl /Od /D _UNICODE /D UNICODE /Gm- /EHsc /RTC1 /MDd /GS /fp:precise /permissive- /Zc:wchar_t /Zc:forScope /Zc:inline /Fo"X64\DEBUG\\" /Fd"X64\DEBUG\VC141.PDB" /Gd /TP /FC C:\USERS\ACER\SOURCE\REPOS\컴그텀프최종\컴그텀프최종\MAIN.CPP
^D:\VISUALSTUDIOCODES\SOURCE\REPOS\컴그텀프최종\컴그텀프최종\MAIN.CPP
/c /ZI /JMC /nologo /W3 /WX- /diagnostics:classic /sdl /Od /D _UNICODE /D UNICODE /Gm- /EHsc /RTC1 /MDd /GS /fp:precise /permissive- /Zc:wchar_t /Zc:forScope /Zc:inline /Fo"X64\DEBUG\\" /Fd"X64\DEBUG\VC141.PDB" /Gd /TP /FC D:\VISUALSTUDIOCODES\SOURCE\REPOS\컴그텀프최종\컴그텀프최종\MAIN.CPP
