^C:\USERS\ACER\SOURCE\REPOS\컴그텀프최종\컴그텀프최종\MAIN.CPP
C:\USERS\ACER\SOURCE\REPOS\컴그텀프최종\컴그텀프최종\X64\DEBUG\VC141.PDB
C:\USERS\ACER\SOURCE\REPOS\컴그텀프최종\컴그텀프최종\X64\DEBUG\VC141.IDB
C:\USERS\ACER\SOURCE\REPOS\컴그텀프최종\컴그텀프최종\X64\DEBUG\MAIN.OBJ
^D:\VISUALSTUDIOCODES\SOURCE\REPOS\컴그텀프최종\컴그텀프최종\MAIN.CPP
D:\VISUALSTUDIOCODES\SOURCE\REPOS\컴그텀프최종\컴그텀프최종\X64\DEBUG\VC141.PDB
D:\VISUALSTUDIOCODES\SOURCE\REPOS\컴그텀프최종\컴그텀프최종\X64\DEBUG\VC141.IDB
D:\VISUALSTUDIOCODES\SOURCE\REPOS\컴그텀프최종\컴그텀프최종\X64\DEBUG\MAIN.OBJ
