^D:\VISUALSTUDIOCODES\SOURCE\REPOS\컴그텀프최종\컴그텀프최종\MAIN.CPP
D:\VISUALSTUDIOCODES\SOURCE\REPOS\컴그텀프최종\컴그텀프최종\DEBUG\VC141.PDB
D:\VISUALSTUDIOCODES\SOURCE\REPOS\컴그텀프최종\컴그텀프최종\DEBUG\VC141.IDB
D:\VISUALSTUDIOCODES\SOURCE\REPOS\컴그텀프최종\컴그텀프최종\DEBUG\MAIN.OBJ
^D:\PORTPOLIOES\CLIENTS\COMPUTER-GRAPHICS-PROJECT\컴그텀프최종\MAIN.CPP
D:\PORTPOLIOES\CLIENTS\COMPUTER-GRAPHICS-PROJECT\컴그텀프최종\DEBUG\VC141.PDB
D:\PORTPOLIOES\CLIENTS\COMPUTER-GRAPHICS-PROJECT\컴그텀프최종\DEBUG\VC141.IDB
D:\PORTPOLIOES\CLIENTS\COMPUTER-GRAPHICS-PROJECT\컴그텀프최종\DEBUG\MAIN.OBJ
