^D:\VISUALSTUDIOCODES\SOURCE\REPOS\컴그텀프최종\컴그텀프최종\DEBUG\MAIN.OBJ
D:\VISUALSTUDIOCODES\SOURCE\REPOS\컴그텀프최종\DEBUG\컴그텀프최종.ILK
D:\VISUALSTUDIOCODES\SOURCE\REPOS\컴그텀프최종\DEBUG\컴그텀프최종.EXE
D:\VISUALSTUDIOCODES\SOURCE\REPOS\컴그텀프최종\DEBUG\컴그텀프최종.PDB
^D:\PORTPOLIOES\CLIENTS\COMPUTER-GRAPHICS-PROJECT\컴그텀프최종\DEBUG\MAIN.OBJ
D:\PORTPOLIOES\CLIENTS\COMPUTER-GRAPHICS-PROJECT\DEBUG\컴그텀프최종.EXE
D:\PORTPOLIOES\CLIENTS\COMPUTER-GRAPHICS-PROJECT\DEBUG\컴그텀프최종.ILK
D:\PORTPOLIOES\CLIENTS\COMPUTER-GRAPHICS-PROJECT\DEBUG\컴그텀프최종.PDB
