^C:\USERS\ACER\SOURCE\REPOS\컴그텀프최종\컴그텀프최종\DEBUG\MAIN.OBJ
/OUT:"C:\USERS\ACER\SOURCE\REPOS\컴그텀프최종\DEBUG\컴그텀프최종.EXE" /INCREMENTAL /NOLOGO KERNEL32.LIB USER32.LIB GDI32.LIB WINSPOOL.LIB COMDLG32.LIB ADVAPI32.LIB SHELL32.LIB OLE32.LIB OLEAUT32.LIB UUID.LIB ODBC32.LIB ODBCCP32.LIB /MANIFEST /MANIFESTUAC:"level='asInvoker' uiAccess='false'" /manifest:embed /DEBUG:FASTLINK /PDB:"C:\USERS\ACER\SOURCE\REPOS\컴그텀프최종\DEBUG\컴그텀프최종.PDB" /TLBID:1 /DYNAMICBASE /NXCOMPAT /IMPLIB:"C:\USERS\ACER\SOURCE\REPOS\컴그텀프최종\DEBUG\컴그텀프최종.LIB" /MACHINE:X86 DEBUG\MAIN.OBJ
^D:\VISUALSTUDIOCODES\SOURCE\REPOS\컴그텀프최종\컴그텀프최종\DEBUG\MAIN.OBJ
/OUT:"D:\VISUALSTUDIOCODES\SOURCE\REPOS\컴그텀프최종\DEBUG\컴그텀프최종.EXE" /INCREMENTAL /NOLOGO KERNEL32.LIB USER32.LIB GDI32.LIB WINSPOOL.LIB COMDLG32.LIB ADVAPI32.LIB SHELL32.LIB OLE32.LIB OLEAUT32.LIB UUID.LIB ODBC32.LIB ODBCCP32.LIB /MANIFEST /MANIFESTUAC:"level='asInvoker' uiAccess='false'" /manifest:embed /DEBUG:FASTLINK /PDB:"D:\VISUALSTUDIOCODES\SOURCE\REPOS\컴그텀프최종\DEBUG\컴그텀프최종.PDB" /TLBID:1 /DYNAMICBASE /NXCOMPAT /IMPLIB:"D:\VISUALSTUDIOCODES\SOURCE\REPOS\컴그텀프최종\DEBUG\컴그텀프최종.LIB" /MACHINE:X86 DEBUG\MAIN.OBJ
^D:\PORTPOLIOES\CLIENTS\COMPUTER-GRAPHICS-PROJECT\컴그텀프최종\DEBUG\MAIN.OBJ
/OUT:"D:\PORTPOLIOES\CLIENTS\COMPUTER-GRAPHICS-PROJECT\DEBUG\컴그텀프최종.EXE" /INCREMENTAL /NOLOGO KERNEL32.LIB USER32.LIB GDI32.LIB WINSPOOL.LIB COMDLG32.LIB ADVAPI32.LIB SHELL32.LIB OLE32.LIB OLEAUT32.LIB UUID.LIB ODBC32.LIB ODBCCP32.LIB /MANIFEST /MANIFESTUAC:"level='asInvoker' uiAccess='false'" /manifest:embed /DEBUG:FASTLINK /PDB:"D:\PORTPOLIOES\CLIENTS\COMPUTER-GRAPHICS-PROJECT\DEBUG\컴그텀프최종.PDB" /TLBID:1 /DYNAMICBASE /NXCOMPAT /IMPLIB:"D:\PORTPOLIOES\CLIENTS\COMPUTER-GRAPHICS-PROJECT\DEBUG\컴그텀프최종.LIB" /MACHINE:X86 DEBUG\MAIN.OBJ
